module gitlab.qleanlabs.ru/platform/infra/servicemonitor-without-service

go 1.17

require (
	github.com/prometheus-operator/prometheus-operator/pkg/apis/monitoring v0.52.1
	k8s.io/apimachinery v0.22.3
)

require (
	github.com/go-logr/logr v0.4.0 // indirect
	github.com/gogo/protobuf v1.3.2 // indirect
	github.com/google/go-cmp v0.5.5 // indirect
	github.com/google/gofuzz v1.1.0 // indirect
	github.com/json-iterator/go v1.1.11 // indirect
	github.com/modern-go/concurrent v0.0.0-20180306012644-bacd9c7ef1dd // indirect
	github.com/modern-go/reflect2 v1.0.1 // indirect
	golang.org/x/net v0.0.0-20210520170846-37e1c6afe023 // indirect
	golang.org/x/text v0.3.6 // indirect
	gopkg.in/inf.v0 v0.9.1 // indirect
	gopkg.in/yaml.v2 v2.4.0 // indirect
	k8s.io/api v0.22.3 // indirect
	k8s.io/klog/v2 v2.10.0 // indirect
	sigs.k8s.io/structured-merge-diff/v4 v4.1.2 // indirect
	sigs.k8s.io/yaml v1.2.0 // indirect
)
